%YAML 1.1
%TAG !u! tag:unity3d.com,2011:
--- !u!114 &11400000
MonoBehaviour:
  m_ObjectHideFlags: 0
  m_CorrespondingSourceObject: {fileID: 0}
  m_PrefabInstance: {fileID: 0}
  m_PrefabAsset: {fileID: 0}
  m_GameObject: {fileID: 0}
  m_Enabled: 1
  m_EditorHideFlags: 0
  m_Script: {fileID: 11500000, guid: aa8fb0cd371b6b04f9f2be8b2d138981, type: 3}
  m_Name: Drain
  m_EditorClassIdentifier: 
  _name: Drain
  _oppesiteEffect: {fileID: 11400000, guid: 8e55ae732c4a7bf499ed2a6e75006fc7, type: 2}
  _effectAlignment: 2
  _hasBeenDiscovered: 0
