%YAML 1.1
%TAG !u! tag:unity3d.com,2011:
--- !u!114 &11400000
MonoBehaviour:
  m_ObjectHideFlags: 0
  m_CorrespondingSourceObject: {fileID: 0}
  m_PrefabInstance: {fileID: 0}
  m_PrefabAsset: {fileID: 0}
  m_GameObject: {fileID: 0}
  m_Enabled: 1
  m_EditorHideFlags: 0
  m_Script: {fileID: 11500000, guid: 824add9f03b048847a99f3b7de3a8301, type: 3}
  m_Name: ClawRoot
  m_EditorClassIdentifier: 
  _name: Claw Root
  _herbSprite: {fileID: 21300000, guid: 7f89c6928a2c7254999c23387e7df045, type: 3}
  _amount: 1
  _majorEffect: {fileID: 11400000, guid: d1de38a23f9d6954da333b491233abb8, type: 2}
  _minorEffects:
  - {fileID: 11400000, guid: 8e55ae732c4a7bf499ed2a6e75006fc7, type: 2}
  - {fileID: 11400000, guid: c051078e0772969418d3c15157cfc6e5, type: 2}
  - {fileID: 11400000, guid: 3fca8b537a30a844d8e4402571f11460, type: 2}
