%YAML 1.1
%TAG !u! tag:unity3d.com,2011:
--- !u!114 &11400000
MonoBehaviour:
  m_ObjectHideFlags: 0
  m_CorrespondingSourceObject: {fileID: 0}
  m_PrefabInstance: {fileID: 0}
  m_PrefabAsset: {fileID: 0}
  m_GameObject: {fileID: 0}
  m_Enabled: 1
  m_EditorHideFlags: 0
  m_Script: {fileID: 11500000, guid: 824add9f03b048847a99f3b7de3a8301, type: 3}
  m_Name: RainIvy
  m_EditorClassIdentifier: 
  _name: Rain Ivy
  _herbSprite: {fileID: 21300000, guid: 791296ed02a8909438456175eda2193d, type: 3}
  _amount: 2
  _majorEffect: {fileID: 11400000, guid: 24eda62f2aaa68b42b676d75129ac009, type: 2}
  _minorEffects:
  - {fileID: 11400000, guid: 0af7ae63d7f6b22419a23a962ccf0337, type: 2}
  - {fileID: 11400000, guid: 3fca8b537a30a844d8e4402571f11460, type: 2}
  - {fileID: 11400000, guid: 3bde04a3ddd8d214482ce12832fed236, type: 2}
