%YAML 1.1
%TAG !u! tag:unity3d.com,2011:
--- !u!114 &11400000
MonoBehaviour:
  m_ObjectHideFlags: 0
  m_CorrespondingSourceObject: {fileID: 0}
  m_PrefabInstance: {fileID: 0}
  m_PrefabAsset: {fileID: 0}
  m_GameObject: {fileID: 0}
  m_Enabled: 1
  m_EditorHideFlags: 0
  m_Script: {fileID: 11500000, guid: 824add9f03b048847a99f3b7de3a8301, type: 3}
  m_Name: RedBerries
  m_EditorClassIdentifier: 
  _name: Red Berries
  _herbSprite: {fileID: 21300000, guid: 439c31c747ee6c648b70e0b076809725, type: 3}
  _amount: 0
  _majorEffect: {fileID: 11400000, guid: c051078e0772969418d3c15157cfc6e5, type: 2}
  _minorEffects:
  - {fileID: 11400000, guid: 3bde04a3ddd8d214482ce12832fed236, type: 2}
  - {fileID: 11400000, guid: 24eda62f2aaa68b42b676d75129ac009, type: 2}
  - {fileID: 11400000, guid: 722ac60767efba948b9b5c457f2a89a9, type: 2}
