%YAML 1.1
%TAG !u! tag:unity3d.com,2011:
--- !u!114 &11400000
MonoBehaviour:
  m_ObjectHideFlags: 0
  m_CorrespondingSourceObject: {fileID: 0}
  m_PrefabInstance: {fileID: 0}
  m_PrefabAsset: {fileID: 0}
  m_GameObject: {fileID: 0}
  m_Enabled: 1
  m_EditorHideFlags: 0
  m_Script: {fileID: 11500000, guid: 824add9f03b048847a99f3b7de3a8301, type: 3}
  m_Name: SpiderEggs
  m_EditorClassIdentifier: 
  _name: SpiderEggs
  _herbSprite: {fileID: 21300000, guid: d641f028eae5f9843af929b0a517718a, type: 3}
  _amount: 1
  _majorEffect: {fileID: 11400000, guid: 5d2d598edc1ee754f9f78c258dd88ad2, type: 2}
  _minorEffects:
  - {fileID: 11400000, guid: beab5ba2e68cc3d4283e78294f20a63a, type: 2}
  - {fileID: 11400000, guid: 722ac60767efba948b9b5c457f2a89a9, type: 2}
  - {fileID: 11400000, guid: 8b9ce0f44a0c96e4ba94932d1b15ad51, type: 2}
